^C:\USERS\ANDREW_975\GOOGLE ДИСК\@4TERM\OS\_4TERM\LAB6\LAB6\DEBUG\LAB6.OBJ|C:\USERS\ANDREW_975\GOOGLE ДИСК\@4TERM\OS\_4TERM\LAB6\LAB6\DEBUG\STDAFX.OBJ
C:\USERS\ANDREW_975\GOOGLE Диск\@4TERM\OS\_4TERM\LAB6\DEBUG\LAB6.ILK
C:\USERS\ANDREW_975\GOOGLE Диск\@4TERM\OS\_4TERM\LAB6\DEBUG\LAB6.EXE
C:\USERS\ANDREW_975\GOOGLE ДИСК\@4TERM\OS\_4TERM\LAB6\DEBUG\LAB6.PDB
